,word,prob
0,ability,17
1,able,8
2,abortion,3
3,absolute,0
4,absolutely,4
5,accept,5
6,access,9
7,according,12
8,account,18
9,achieve,14
10,act,12
11,action,18
12,activity,10
13,actual,1
14,actually,12
15,add,7
16,added,20
17,address,11
18,admin,3
19,administration,21
20,administrator,22
21,advance,5
22,advanced,12
23,advice,2
24,afraid,8
25,africa,11
26,african,0
27,afternoon,3
28,age,12
29,agency,11
30,agent,10
31,ago,17
32,agree,8
33,ahead,5
34,air,11
35,airport,0
36,album,2
37,alive,4
38,allow,2
39,allowed,1
40,ally,1
41,amazing,9
42,amazon,11
43,america,22
44,american,27
45,analysis,17
46,analyst,57
47,analytics,13
48,andrew,5
49,angry,7
50,animal,2
51,anniversary,3
52,announce,4
53,announced,7
54,annual,2
55,answer,13
56,apartment,8
57,app,15
58,apparently,2
59,apple,37
60,application,66
61,apply,16
62,approach,11
63,apps,11
64,architect,29
65,area,19
66,arent,4
67,argument,2
68,arm,4
69,arrived,4
70,art,11
71,article,9
72,artist,7
73,ask,6
74,asked,8
75,asking,5
76,asks,9
77,aspect,7
78,associate,16
79,associated,7
80,assurance,14
81,attack,17
82,august,4
83,australia,9
84,automation,16
85,available,40
86,avoid,10
87,award,8
88,away,18
89,awesome,12
90,baby,9
91,background,9
92,bad,19
93,bag,5
94,balance,2
95,ball,5
96,ban,6
97,bank,10
98,bar,3
99,based,27
100,battle,10
101,bbc,6
102,beach,9
103,bear,5
104,beat,4
105,beautiful,7
106,beauty,7
107,bed,3
108,beer,5
109,begin,9
110,believe,15
111,benefit,13
112,best,67
113,bet,3
114,better,33
115,big,34
116,bigger,5
117,biggest,8
118,bike,3
119,billion,14
120,bird,5
121,birthday,5
122,bit,5
123,bitch,1
124,black,14
125,blame,1
126,blog,10
127,blue,12
128,board,11
129,boat,13
130,body,9
131,bonus,9
132,book,19
133,border,7
134,born,6
135,bos,9
136,boston,9
137,bot,13
138,bought,5
139,box,7
140,boy,15
141,brain,5
142,brand,11
143,break,13
144,breakfast,1
145,breaking,2
146,brexit,48
147,bridge,3
148,brilliant,3
149,bring,10
150,brings,8
151,britain,5
152,british,5
153,broken,4
154,brother,2
155,brought,7
156,brown,13
157,browser,10
158,budget,4
159,build,24
160,building,17
161,built,9
162,bunch,2
163,bus,1
164,business,91
165,busy,3
166,buy,14
167,buying,7
168,california,22
169,called,9
170,calling,5
171,came,10
172,camera,5
173,campaign,7
174,campus,6
175,canada,12
176,canadian,4
177,candidate,29
178,cap,5
179,capital,7
180,car,22
181,card,16
182,care,23
183,career,57
184,carolina,15
185,case,16
186,cash,4
187,cast,6
188,cat,8
189,catch,5
190,category,30
191,cause,6
192,caused,7
193,celebrate,4
194,celebrating,2
195,center,36
196,central,7
197,centre,0
198,century,4
199,ceo,10
200,certain,13
201,certainly,4
202,chain,7
203,challenge,12
204,challenging,6
205,champion,3
206,chance,16
207,change,41
208,changed,5
209,changing,6
210,character,8
211,charge,1
212,chat,5
213,check,23
214,checking,2
215,cheer,1
216,chicago,8
217,chief,16
218,child,25
219,china,24
220,chinese,14
221,chip,9
222,choice,8
223,choose,9
224,chris,2
225,christmas,6
226,church,6
227,cisco,10
228,citizen,4
229,city,31
230,civil,3
231,claim,8
232,class,11
233,classic,2
234,clean,5
235,clear,13
236,clearance,11
237,clearly,1
238,click,7
239,client,53
240,climate,6
241,clinton,10
242,close,15
243,closed,0
244,clothes,3
245,cloud,32
246,club,9
247,cnn,17
248,coach,3
249,code,17
250,coffee,5
251,cold,5
252,colleague,2
253,collection,2
254,college,7
255,colour,3
256,come,43
257,coming,7
258,command,9
259,comment,3
260,committed,14
261,committee,3
262,common,4
263,communicate,6
264,communication,13
265,community,18
266,company,118
267,compared,2
268,competition,6
269,complete,4
270,complex,12
271,computer,18
272,condition,7
273,conference,6
274,confidence,5
275,congrats,0
276,congratulation,1
277,congress,6
278,consider,4
279,considered,8
280,consultant,11
281,consulting,16
282,consumer,6
283,contact,11
284,content,14
285,continue,17
286,contract,31
287,control,18
288,conversation,3
289,cooky,16
290,cool,10
291,copy,1
292,core,11
293,corporate,16
294,corporation,12
295,cost,10
296,council,2
297,count,4
298,country,41
299,county,6
300,couple,4
301,course,5
302,court,14
303,cover,6
304,crash,4
305,crazy,5
306,create,13
307,created,5
308,creating,10
309,credit,5
310,crime,3
311,crisis,1
312,critical,5
313,culture,6
314,cunt,0
315,cup,4
316,current,5
317,currently,25
318,customer,39
319,cut,10
320,cute,1
321,cyber,13
322,dad,4
323,daily,12
324,damn,2
325,dance,5
326,dangerous,3
327,dark,11
328,data,69
329,database,17
330,date,55
331,daughter,3
332,david,15
333,day,78
334,dead,16
335,deal,23
336,death,14
337,debate,7
338,dec,7
339,december,8
340,decision,14
341,dedicated,9
342,deep,17
343,defense,11
344,define,7
345,definitely,2
346,degree,10
347,del,12
348,delighted,0
349,delivering,14
350,demand,4
351,democracy,2
352,democrat,12
353,democratic,8
354,department,14
355,description,158
356,deserve,2
357,design,41
358,designer,9
359,desk,8
360,develop,28
361,developer,162
362,developing,14
363,development,81
364,device,7
365,devops,15
366,dianaricketthomebiz,17
367,didnt,10
368,die,7
369,died,4
370,difference,8
371,different,10
372,difficult,4
373,digital,39
374,dinner,6
375,direct,9
376,director,12
377,discover,11
378,discus,5
379,discussion,1
380,division,10
381,doctor,4
382,doesnt,16
383,dog,6
384,dollar,12
385,domain,9
386,donald,35
387,dont,68
388,door,7
389,double,4
390,doubt,9
391,draw,4
392,dream,23
393,dress,1
394,drink,4
395,drive,16
396,driver,5
397,driving,6
398,drop,5
399,drug,12
400,dublin,0
401,duration,15
402,duty,12
403,earlier,4
404,early,9
405,earth,8
406,east,7
407,easy,12
408,eat,3
409,eaten,18
410,eating,4
411,economic,9
412,economy,3
413,edinburgh,0
414,education,8
415,effect,9
416,effort,7
417,election,5
418,electric,7
419,email,14
420,emergency,10
421,employee,25
422,employer,20
423,employment,10
424,enable,22
425,end,31
426,energy,9
427,engineer,169
428,engineering,39
429,england,6
430,english,6
431,enjoy,19
432,ensure,7
433,enter,7
434,enterprise,29
435,entire,6
436,entry,7
437,environment,18
438,environmental,5
439,episode,3
440,equal,5
441,especially,3
442,essential,8
443,established,9
444,europe,4
445,european,8
446,evening,2
447,event,10
448,everyday,3
449,evidence,12
450,exactly,0
451,example,5
452,excellent,3
453,excited,5
454,exciting,11
455,exclusive,7
456,executive,19
457,existing,7
458,expected,6
459,experience,115
460,experienced,19
461,expert,12
462,explain,3
463,explore,7
464,extra,6
465,extremely,2
466,eye,14
467,fab,0
468,face,17
469,facebook,22
470,fact,7
471,failure,8
472,fair,4
473,fake,3
474,fall,16
475,family,34
476,fan,17
477,fantastic,7
478,far,10
479,fashion,6
480,fast,9
481,fat,1
482,father,8
483,favorite,11
484,favourite,1
485,fbi,6
486,fear,15
487,feature,19
488,featured,11
489,federal,10
490,fee,6
491,feel,27
492,feeling,13
493,female,6
494,festival,0
495,field,12
496,fight,22
497,fighting,6
498,figure,4
499,film,6
500,final,13
501,finally,9
502,finance,7
503,financial,24
504,fine,8
505,finish,1
506,finished,2
507,fired,3
508,firm,28
509,fit,8
510,flight,2
511,floor,5
512,florida,9
513,flower,6
514,flying,2
515,focus,14
516,focused,12
517,folk,1
518,follow,21
519,follower,9
520,following,15
521,food,21
522,foot,3
523,football,3
524,force,4
525,ford,0
526,forecast,3
527,forever,3
528,forget,10
529,form,6
530,forward,8
531,fox,6
532,francisco,11
533,fraud,2
534,free,51
535,freedom,2
536,french,2
537,fresh,7
538,friday,19
539,friend,26
540,fuck,4
541,fucking,4
542,fulltime,33
543,fully,6
544,fun,10
545,function,11
546,fund,9
547,funding,4
548,funny,2
549,future,27
550,gain,4
551,game,46
552,garden,5
553,gave,8
554,general,13
555,generation,8
556,george,8
557,georgia,8
558,german,6
559,getting,16
560,giant,7
561,gif,10
562,gift,4
563,girl,14
564,given,4
565,giving,6
566,glacier,12
567,glad,0
568,glass,4
569,global,33
570,goal,21
571,god,48
572,going,28
573,gold,15
574,gone,4
575,gonna,3
576,good,48
577,google,24
578,gop,7
579,gorgeous,1
580,got,22
581,gotta,2
582,government,15
583,govt,2
584,grand,4
585,great,50
586,greatest,5
587,green,22
588,ground,5
589,group,38
590,grow,10
591,growing,23
592,growth,19
593,guess,6
594,guide,8
595,gun,7
596,guy,7
597,gym,0
598,haha,2
599,hair,6
600,half,1
601,hall,5
602,hand,15
603,happen,5
604,happened,2
605,happening,4
606,happens,6
607,happiness,10
608,happy,26
609,hard,16
610,hat,1
611,hate,7
612,head,13
613,health,18
614,healthcare,14
615,healthy,4
616,hear,9
617,heard,11
618,hearing,1
619,heart,26
620,held,5
621,hell,7
622,hello,9
623,help,57
624,helping,13
625,hey,12
626,high,15
627,higher,3
628,highlight,4
629,highly,14
630,hill,8
631,hillary,13
632,hire,13
633,hiring,11
634,history,17
635,hit,7
636,hold,15
637,holding,7
638,holiday,6
639,holy,5
640,home,55
641,honest,4
642,honestly,3
643,honor,5
644,hope,16
645,hopefully,1
646,hospital,11
647,hot,10
648,hour,19
649,house,29
650,housing,3
651,houston,10
652,htt,1
653,huge,3
654,human,12
655,hun,0
656,hurt,4
657,husband,2
658,idea,12
659,identify,9
660,ill,7
661,illegal,1
662,image,3
663,imagine,5
664,immigrant,3
665,immigration,5
666,impact,7
667,implementation,15
668,important,16
669,impossible,8
670,include,7
671,includes,6
672,including,27
673,increase,6
674,incredible,6
675,india,6
676,individual,12
677,industry,35
678,info,2
679,information,48
680,infrastructure,16
681,innovation,10
682,innovative,16
683,inside,17
684,insight,4
685,inspiring,2
686,instagram,2
687,instant,20
688,instead,10
689,insurance,9
690,integration,13
691,intelligence,21
692,interested,7
693,interesting,5
694,internal,9
695,international,15
696,internet,22
697,interview,4
698,introduction,10
699,investigation,5
700,investment,10
701,investor,11
702,iot,2
703,iphone,11
704,ireland,1
705,irish,1
706,island,8
707,isnt,16
708,israel,5
709,issue,20
710,itll,2
711,ive,9
712,james,11
713,january,7
714,java,43
715,jersey,7
716,jesus,7
717,jim,8
718,job,342
719,joe,5
720,john,16
721,johnson,3
722,join,69
723,joke,3
724,jon,4
725,jones,5
726,jordan,4
727,journal,8
728,journalist,0
729,journey,5
730,joy,6
731,judge,4
732,july,3
733,jump,5
734,june,4
735,junior,10
736,justice,5
737,kavanaugh,2
738,key,16
739,kick,3
740,kid,6
741,kill,11
742,killed,6
743,kind,13
744,king,12
745,knew,4
746,knock,22
747,know,62
748,knowledge,18
749,known,6
750,korea,7
751,lab,10
752,lack,5
753,lad,2
754,lady,10
755,lake,8
756,lana,11
757,language,13
758,large,6
759,largest,9
760,late,7
761,lately,2
762,later,5
763,latest,19
764,laugh,2
765,launch,11
766,law,10
767,lawyer,3
768,lead,60
769,leader,30
770,leadership,10
771,leading,24
772,leaf,7
773,league,4
774,learn,26
775,learned,8
776,learning,19
777,leave,15
778,leaving,4
779,left,12
780,leg,3
781,legal,4
782,legend,2
783,lesson,1
784,let,32
785,letter,5
786,level,37
787,library,1
788,lie,6
789,life,95
790,light,19
791,like,81
792,liked,2
793,likely,4
794,limited,2
795,line,14
796,link,5
797,linux,12
798,list,6
799,listen,6
800,listening,5
801,literally,1
802,little,22
803,live,30
804,lived,2
805,living,10
806,loan,6
807,local,11
808,located,10
809,location,118
810,lol,9
811,london,12
812,long,23
813,longer,7
814,look,37
815,looked,2
816,looking,85
817,lord,19
818,lose,14
819,loss,7
820,lost,14
821,lot,13
822,love,82
823,loved,8
824,lovely,1
825,loving,2
826,low,5
827,lower,10
828,luck,2
829,lucky,3
830,lunch,4
831,machine,12
832,mad,4
833,main,9
834,maintain,8
835,major,14
836,make,79
837,making,10
838,man,39
839,manage,9
840,management,63
841,manager,79
842,map,11
843,march,6
844,mark,10
845,market,25
846,marketing,19
847,martin,5
848,mary,6
849,mass,6
850,massive,5
851,master,24
852,match,7
853,mate,2
854,matter,16
855,maybe,13
856,mayor,2
857,mean,35
858,medical,17
859,medium,25
860,meet,14
861,meeting,18
862,member,19
863,memory,5
864,men,15
865,mental,4
866,mention,0
867,message,6
868,messi,10
869,met,5
870,mexico,5
871,michael,11
872,microsoft,10
873,middle,6
874,mile,3
875,military,9
876,million,28
877,min,4
878,mind,20
879,minimum,10
880,minister,3
881,minute,14
882,miss,12
883,missed,3
884,missing,3
885,mission,22
886,mistake,5
887,mix,7
888,mobile,22
889,model,8
890,modern,2
891,moment,16
892,monday,12
893,money,16
894,month,35
895,mood,4
896,morning,17
897,mother,13
898,mountain,9
899,moved,5
900,movie,11
901,moving,6
902,mrw,19
903,mueller,6
904,multiple,21
905,mum,1
906,murder,2
907,music,13
908,named,7
909,nation,13
910,national,17
911,navigation,16
912,near,10
913,nearly,7
914,need,62
915,needed,9
916,negative,7
917,net,25
918,netflix,24
919,network,54
920,new,216
921,news,41
922,nice,4
923,night,30
924,nnt,28
925,nominee,5
926,north,22
927,note,10
928,november,8
929,number,31
930,nurse,14
931,nyc,7
932,obama,16
933,occurred,8
934,offer,20
935,offering,7
936,office,18
937,officer,11
938,official,17
939,ohio,11
940,oil,6
941,okay,5
942,old,22
943,omg,0
944,online,15
945,open,20
946,opening,30
947,operation,23
948,opinion,2
949,opportunity,46
950,option,8
951,oracle,12
952,orange,7
953,order,19
954,organization,18
955,original,7
956,outside,3
957,overview,25
958,owner,11
959,page,13
960,paid,3
961,pain,6
962,painted,24
963,painting,3
964,panel,3
965,paper,2
966,parent,4
967,paris,2
968,park,11
969,partner,11
970,party,10
971,pas,4
972,passion,8
973,passionate,14
974,past,13
975,patient,19
976,paul,3
977,pay,16
978,paying,2
979,payment,10
980,peace,6
981,penny,7
982,people,109
983,perfect,16
984,perform,8
985,performance,11
986,permanent,13
987,person,28
988,personal,12
989,personalized,12
990,peter,6
991,petition,2
992,phone,17
993,photo,12
994,physical,10
995,pic,4
996,picard,31
997,pick,7
998,picture,5
999,piece,4
1000,pink,9
1001,place,29
1002,plan,25
1003,planet,7
1004,planned,3
1005,planning,11
1006,platform,26
1007,play,17
1008,played,3
1009,player,11
1010,playing,6
1011,plus,5
1012,plz,20
1013,podcast,3
1014,point,14
1015,police,12
1016,policy,12
1017,political,11
1018,politician,2
1019,politics,3
1020,poll,4
1021,pool,1
1022,poor,5
1023,pop,4
1024,popular,9
1025,position,110
1026,positive,8
1027,possible,15
1028,possibly,3
1029,post,40
1030,posted,41
1031,posting,12
1032,power,21
1033,powerful,13
1034,ppl,2
1035,practice,7
1036,present,4
1037,president,78
1038,presidential,6
1039,press,7
1040,prestigious,9
1041,pretty,0
1042,price,17
1043,pride,4
1044,primary,25
1045,principal,18
1046,private,9
1047,pro,6
1048,probably,25
1049,problem,24
1050,process,21
1051,product,51
1052,production,9
1053,professional,21
1054,program,30
1055,project,76
1056,promise,4
1057,proof,5
1058,property,6
1059,protect,5
1060,protest,7
1061,proud,5
1062,provide,16
1063,provider,19
1064,provides,17
1065,public,15
1066,published,19
1067,pull,2
1068,purchase,7
1069,purpose,6
1070,push,4
1071,putin,5
1072,putting,0
1073,python,21
1074,quality,24
1075,queen,6
1076,question,18
1077,quick,2
1078,quickly,7
1079,quite,4
1080,quote,16
1081,race,6
1082,rain,3
1083,raise,6
1084,rate,7
1085,reach,8
1086,read,23
1087,reading,15
1088,ready,9
1089,real,25
1090,realise,0
1091,reality,7
1092,really,23
1093,reason,13
1094,received,4
1095,recent,5
1096,recently,7
1097,record,11
1098,recruiting,7
1099,red,19
1100,ref,33
1101,refugee,2
1102,regular,6
1103,related,13
1104,relationship,14
1105,release,9
1106,released,6
1107,remain,6
1108,remember,11
1109,reminder,2
1110,remote,11
1111,repeat,4
1112,repec,15
1113,report,42
1114,reporter,6
1115,reporting,10
1116,republican,11
1117,req,27
1118,required,20
1119,requirement,16
1120,requisition,21
1121,research,17
1122,resolution,6
1123,resource,11
1124,respect,4
1125,response,4
1126,responsibility,22
1127,responsible,34
1128,rest,3
1129,result,27
1130,resume,12
1131,return,10
1132,retweet,25
1133,reuters,36
1134,review,22
1135,rey,10
1136,rich,5
1137,richard,4
1138,right,35
1139,rise,9
1140,risk,13
1141,road,11
1142,robert,10
1143,rock,8
1144,role,44
1145,roll,5
1146,room,9
1147,rose,5
1148,round,2
1149,royal,5
1150,rule,10
1151,run,13
1152,running,8
1153,rural,3
1154,russia,10
1155,russian,6
1156,sad,7
1157,sadly,1
1158,safe,4
1159,safety,7
1160,said,45
1161,salary,13
1162,sale,28
1163,san,23
1164,sap,11
1165,saturday,8
1166,saudi,5
1167,save,18
1168,saved,4
1169,saving,6
1170,saw,6
1171,say,51
1172,saying,11
1173,scene,4
1174,schedule,6
1175,school,16
1176,science,20
1177,scientist,15
1178,score,3
1179,scotland,1
1180,scott,3
1181,scottish,0
1182,scrum,15
1183,sea,7
1184,search,24
1185,season,20
1186,seat,5
1187,second,10
1188,secret,13
1189,security,46
1190,seeing,3
1191,seek,14
1192,seeking,44
1193,seen,8
1194,self,4
1195,sell,10
1196,selling,3
1197,senate,4
1198,senator,6
1199,send,8
1200,sending,2
1201,senior,106
1202,sense,3
1203,sent,3
1204,september,2
1205,series,14
1206,seriously,2
1207,serve,9
1208,server,14
1209,service,117
1210,session,5
1211,set,21
1212,sex,7
1213,sexual,2
1214,shall,10
1215,shame,0
1216,share,12
1217,sharing,21
1218,shes,2
1219,shift,10
1220,shirt,3
1221,shit,6
1222,shite,0
1223,shoot,4
1224,shooting,6
1225,shop,2
1226,shopping,3
1227,short,9
1228,shot,9
1229,shouldnt,6
1230,shout,1
1231,showing,6
1232,sign,17
1233,signed,8
1234,silence,4
1235,silver,8
1236,similar,2
1237,simple,7
1238,simply,6
1239,single,8
1240,sister,2
1241,site,21
1242,sitting,11
1243,situation,4
1244,skill,27
1245,skip,12
1246,sky,5
1247,sleep,4
1248,small,21
1249,smart,9
1250,smile,7
1251,smith,7
1252,snapchat,1
1253,snow,6
1254,social,19
1255,society,5
1256,software,149
1257,sold,2
1258,solution,61
1259,son,7
1260,song,6
1261,soon,5
1262,sorry,3
1263,sound,7
1264,source,9
1265,south,8
1266,southern,5
1267,space,11
1268,speak,3
1269,speaking,3
1270,special,6
1271,specialist,28
1272,specified,10
1273,speech,10
1274,speed,6
1275,spend,7
1276,spending,3
1277,spent,5
1278,spirit,5
1279,sport,4
1280,spot,4
1281,spring,3
1282,sqft,12
1283,sql,14
1284,squad,7
1285,stack,13
1286,staff,9
1287,stage,4
1288,stand,5
1289,standard,8
1290,standing,5
1291,star,21
1292,start,50
1293,started,7
1294,starting,4
1295,startup,14
1296,state,87
1297,statement,3
1298,station,2
1299,status,6
1300,stay,12
1301,step,6
1302,stephen,5
1303,steve,6
1304,stock,11
1305,stop,19
1306,stopped,1
1307,store,16
1308,storm,10
1309,story,24
1310,straight,3
1311,strategy,18
1312,streaming,6
1313,street,24
1314,strong,26
1315,student,15
1316,studio,5
1317,study,9
1318,stuff,7
1319,stupid,0
1320,style,6
1321,success,18
1322,successful,7
1323,suck,2
1324,summary,22
1325,summer,13
1326,sun,9
1327,sunday,11
1328,super,8
1329,support,78
1330,supporting,6
1331,supreme,9
1332,sure,8
1333,surprise,3
1334,survive,4
1335,suspect,7
1336,syria,11
1337,table,2
1338,taken,4
1339,taking,2
1340,talent,9
1341,talented,10
1342,talk,19
1343,talking,9
1344,tank,17
1345,target,3
1346,tax,23
1347,tea,3
1348,teach,5
1349,teacher,5
1350,teaching,3
1351,team,104
1352,tear,4
1353,tech,25
1354,technical,55
1355,technician,14
1356,technology,97
1357,tell,30
1358,telling,1
1359,term,6
1360,test,17
1361,testing,7
1362,texas,14
1363,thank,10
1364,thanks,9
1365,thats,20
1366,therapist,10
1367,therapy,10
1368,theyre,8
1369,thing,56
1370,think,48
1371,thinking,10
1372,tho,4
1373,thought,20
1374,thousand,11
1375,thread,2
1376,threat,6
1377,thursday,4
1378,ticket,7
1379,tie,3
1380,till,4
1381,tim,4
1382,time,135
1383,tip,40
1384,title,39
1385,today,70
1386,told,4
1387,tom,6
1388,tomorrow,6
1389,tonight,15
1390,took,10
1391,tool,17
1392,tory,0
1393,total,6
1394,totally,6
1395,touch,6
1396,tough,4
1397,tour,4
1398,tower,6
1399,town,4
1400,track,8
1401,trade,6
1402,trading,8
1403,traffic,5
1404,train,4
1405,training,8
1406,transformation,6
1407,travel,17
1408,trend,10
1409,tried,4
1410,trip,3
1411,true,24
1412,truly,7
1413,trump,128
1414,trust,7
1415,truth,8
1416,try,17
1417,trying,10
1418,tuesday,15
1419,tune,1
1420,turn,18
1421,turned,4
1422,tweet,27
1423,twitter,12
1424,type,40
1425,uber,8
1426,understand,8
1427,union,8
1428,unit,14
1429,united,59
1430,university,11
1431,unknown,9
1432,unless,5
1433,upcoming,3
1434,update,10
1435,updated,12
1436,usa,14
1437,use,32
1438,used,21
1439,user,20
1440,using,21
1441,valley,6
1442,value,15
1443,van,1
1444,vancouver,2
1445,various,6
1446,vega,5
1447,veteran,4
1448,victim,7
1449,video,25
1450,view,20
1451,violence,3
1452,vision,11
1453,visit,12
1454,voice,7
1455,vote,11
1456,voter,2
1457,voting,2
1458,wait,13
1459,waiting,6
1460,wake,3
1461,walk,7
1462,walking,3
1463,wall,11
1464,want,62
1465,wanted,5
1466,war,12
1467,warning,8
1468,washington,40
1469,wasnt,3
1470,waste,6
1471,watch,12
1472,watched,0
1473,watching,7
1474,water,14
1475,way,50
1476,wear,5
1477,wearing,5
1478,weather,5
1479,web,28
1480,website,9
1481,wednesday,14
1482,wee,0
1483,week,37
1484,weekend,11
1485,weight,7
1486,weird,3
1487,welcome,9
1488,went,8
1489,west,18
1490,weve,4
1491,whats,8
1492,white,16
1493,wife,4
1494,wild,5
1495,win,38
1496,window,25
1497,winner,5
1498,winning,6
1499,wish,9
1500,woman,25
1501,wonder,12
1502,wonderful,6
1503,wont,14
1504,wood,3
1505,word,12
1506,work,96
1507,worked,2
1508,worker,3
1509,working,29
1510,world,74
1511,worry,7
1512,worse,7
1513,worst,5
1514,worth,10
1515,wouldnt,3
1516,wow,3
1517,writer,3
1518,writing,4
1519,wrong,10
1520,wrote,0
1521,xmas,0
1522,yeah,4
1523,year,89
1524,yearold,4
1525,yellow,9
1526,yes,19
1527,yesterday,3
1528,york,41
1529,youll,4
1530,young,12
1531,youre,26
1532,youth,6
1533,youtube,5
1534,youve,3
