,word,prob
0,ability,4
1,able,14
2,abortion,8
3,absolute,12
4,absolutely,16
5,accept,9
6,access,12
7,according,13
8,account,12
9,achieve,2
10,act,19
11,action,15
12,activity,3
13,actual,14
14,actually,39
15,add,11
16,added,19
17,address,5
18,admin,7
19,administration,10
20,administrator,0
21,advance,7
22,advanced,3
23,advice,8
24,afraid,10
25,africa,11
26,african,10
27,afternoon,9
28,age,22
29,agency,10
30,agent,3
31,ago,32
32,agree,16
33,ahead,16
34,air,16
35,airport,10
36,album,13
37,alive,6
38,allow,8
39,allowed,9
40,ally,9
41,amazing,53
42,amazon,8
43,america,24
44,american,44
45,analysis,8
46,analyst,1
47,analytics,1
48,andrew,7
49,angry,4
50,animal,11
51,anniversary,11
52,announce,8
53,announced,4
54,annual,9
55,answer,23
56,apartment,3
57,app,9
58,apparently,8
59,apple,7
60,application,2
61,apply,12
62,approach,12
63,apps,6
64,architect,0
65,area,11
66,arent,12
67,argument,8
68,arm,8
69,arrived,9
70,art,19
71,article,16
72,artist,12
73,ask,25
74,asked,25
75,asking,14
76,asks,4
77,aspect,4
78,associate,3
79,associated,3
80,assurance,1
81,attack,20
82,august,11
83,australia,6
84,automation,1
85,available,16
86,avoid,7
87,award,18
88,away,33
89,awesome,12
90,baby,19
91,background,8
92,bad,42
93,bag,13
94,balance,8
95,ball,17
96,ban,9
97,bank,14
98,bar,16
99,based,11
100,battle,6
101,bbc,7
102,beach,6
103,bear,5
104,beat,21
105,beautiful,36
106,beauty,8
107,bed,13
108,beer,13
109,begin,9
110,believe,28
111,benefit,6
112,best,89
113,bet,12
114,better,64
115,big,69
116,bigger,5
117,biggest,10
118,bike,13
119,billion,8
120,bird,11
121,birthday,39
122,bit,40
123,bitch,12
124,black,19
125,blame,13
126,blog,15
127,blue,13
128,board,11
129,boat,4
130,body,18
131,bonus,3
132,book,40
133,border,26
134,born,7
135,bos,7
136,boston,9
137,bot,1
138,bought,13
139,box,12
140,boy,29
141,brain,9
142,brand,9
143,break,29
144,breakfast,11
145,breaking,18
146,brexit,20
147,bridge,11
148,brilliant,15
149,bring,18
150,brings,7
151,britain,6
152,british,9
153,broken,7
154,brother,11
155,brought,10
156,brown,6
157,browser,0
158,budget,11
159,build,9
160,building,11
161,built,3
162,bunch,10
163,bus,11
164,business,37
165,busy,7
166,buy,23
167,buying,11
168,california,6
169,called,26
170,calling,17
171,came,21
172,camera,5
173,campaign,21
174,campus,5
175,canada,14
176,canadian,12
177,candidate,11
178,cap,12
179,capital,3
180,car,31
181,card,14
182,care,35
183,career,17
184,carolina,1
185,case,26
186,cash,7
187,cast,5
188,cat,11
189,catch,13
190,category,4
191,cause,16
192,caused,3
193,celebrate,8
194,celebrating,11
195,center,7
196,central,10
197,centre,16
198,century,6
199,ceo,8
200,certain,4
201,certainly,7
202,chain,3
203,challenge,17
204,challenging,4
205,champion,12
206,chance,22
207,change,36
208,changed,8
209,changing,9
210,character,12
211,charge,18
212,chat,7
213,check,36
214,checking,8
215,cheer,12
216,chicago,4
217,chief,8
218,child,41
219,china,9
220,chinese,9
221,chip,2
222,choice,14
223,choose,7
224,chris,11
225,christmas,37
226,church,9
227,cisco,0
228,citizen,7
229,city,34
230,civil,11
231,claim,21
232,class,18
233,classic,9
234,clean,11
235,clear,19
236,clearance,1
237,clearly,15
238,click,7
239,client,7
240,climate,16
241,clinton,2
242,close,18
243,closed,12
244,clothes,11
245,cloud,1
246,club,17
247,cnn,4
248,coach,8
249,code,10
250,coffee,12
251,cold,12
252,colleague,9
253,collection,9
254,college,5
255,colour,7
256,come,91
257,coming,45
258,command,1
259,comment,17
260,committed,1
261,committee,7
262,common,11
263,communicate,4
264,communication,3
265,community,24
266,company,36
267,compared,10
268,competition,6
269,complete,7
270,complex,2
271,computer,5
272,condition,7
273,conference,14
274,confidence,6
275,congrats,19
276,congratulation,18
277,congress,7
278,consider,11
279,considered,4
280,consultant,0
281,consulting,0
282,consumer,6
283,contact,17
284,content,6
285,continue,11
286,contract,6
287,control,10
288,conversation,10
289,cooky,3
290,cool,19
291,copy,11
292,core,7
293,corporate,3
294,corporation,2
295,cost,22
296,council,17
297,count,14
298,country,44
299,county,6
300,couple,18
301,course,23
302,court,25
303,cover,13
304,crash,6
305,crazy,13
306,create,9
307,created,7
308,creating,3
309,credit,9
310,crime,9
311,crisis,12
312,critical,9
313,culture,13
314,cunt,14
315,cup,18
316,current,6
317,currently,10
318,customer,11
319,cut,20
320,cute,9
321,cyber,1
322,dad,13
323,daily,9
324,damn,11
325,dance,9
326,dangerous,8
327,dark,8
328,data,21
329,database,0
330,date,10
331,daughter,14
332,david,18
333,day,236
334,dead,13
335,deal,22
336,death,31
337,debate,17
338,dec,7
339,december,12
340,decision,19
341,dedicated,1
342,deep,11
343,defense,3
344,define,3
345,definitely,16
346,degree,8
347,del,2
348,delighted,11
349,delivering,1
350,demand,8
351,democracy,8
352,democrat,10
353,democratic,6
354,department,6
355,description,2
356,deserve,10
357,design,13
358,designer,8
359,desk,2
360,develop,1
361,developer,3
362,developing,2
363,development,11
364,device,4
365,devops,0
366,dianaricketthomebiz,0
367,didnt,32
368,die,11
369,died,12
370,difference,15
371,different,19
372,difficult,10
373,digital,9
374,dinner,13
375,direct,3
376,director,14
377,discover,1
378,discus,8
379,discussion,10
380,division,1
381,doctor,12
382,doesnt,29
383,dog,26
384,dollar,8
385,domain,1
386,donald,12
387,dont,131
388,door,17
389,double,9
390,doubt,4
391,draw,11
392,dream,16
393,dress,12
394,drink,18
395,drive,11
396,driver,8
397,driving,9
398,drop,9
399,drug,11
400,dublin,26
401,duration,0
402,duty,6
403,earlier,8
404,early,27
405,earth,5
406,east,5
407,easy,22
408,eat,15
409,eaten,0
410,eating,17
411,economic,9
412,economy,15
413,edinburgh,21
414,education,13
415,effect,10
416,effort,8
417,election,17
418,electric,3
419,email,21
420,emergency,10
421,employee,10
422,employer,6
423,employment,1
424,enable,0
425,end,45
426,energy,7
427,engineer,0
428,engineering,0
429,england,18
430,english,9
431,enjoy,20
432,ensure,6
433,enter,12
434,enterprise,4
435,entire,7
436,entry,3
437,environment,4
438,environmental,6
439,episode,16
440,equal,7
441,especially,11
442,essential,2
443,established,1
444,europe,10
445,european,7
446,evening,24
447,event,38
448,everyday,8
449,evidence,10
450,exactly,18
451,example,5
452,excellent,15
453,excited,32
454,exciting,12
455,exclusive,5
456,executive,6
457,existing,4
458,expected,4
459,experience,25
460,experienced,3
461,expert,10
462,explain,8
463,explore,5
464,extra,12
465,extremely,11
466,eye,15
467,fab,11
468,face,26
469,facebook,11
470,fact,31
471,failure,9
472,fair,14
473,fake,7
474,fall,8
475,family,46
476,fan,29
477,fantastic,21
478,far,31
479,fashion,6
480,fast,14
481,fat,9
482,father,9
483,favorite,8
484,favourite,22
485,fbi,14
486,fear,14
487,feature,7
488,featured,2
489,federal,12
490,fee,4
491,feel,57
492,feeling,28
493,female,22
494,festival,13
495,field,7
496,fight,9
497,fighting,6
498,figure,6
499,film,28
500,final,25
501,finally,14
502,finance,5
503,financial,6
504,fine,12
505,finish,10
506,finished,11
507,fired,7
508,firm,5
509,fit,6
510,flight,10
511,floor,5
512,florida,2
513,flower,8
514,flying,11
515,focus,14
516,focused,2
517,folk,17
518,follow,31
519,follower,9
520,following,19
521,food,39
522,foot,12
523,football,14
524,force,10
525,ford,10
526,forecast,7
527,forever,14
528,forget,10
529,form,12
530,forward,36
531,fox,6
532,francisco,0
533,fraud,8
534,free,39
535,freedom,10
536,french,9
537,fresh,4
538,friday,30
539,friend,50
540,fuck,21
541,fucking,36
542,fulltime,0
543,fully,8
544,fun,38
545,function,2
546,fund,7
547,funding,9
548,funny,18
549,future,26
550,gain,10
551,game,71
552,garden,12
553,gave,16
554,general,10
555,generation,3
556,george,8
557,georgia,3
558,german,4
559,getting,58
560,giant,7
561,gif,2
562,gift,11
563,girl,42
564,given,18
565,giving,24
566,glacier,0
567,glad,13
568,glass,6
569,global,7
570,goal,30
571,god,33
572,going,119
573,gold,10
574,gone,18
575,gonna,27
576,good,182
577,google,12
578,gop,10
579,gorgeous,10
580,got,97
581,gotta,10
582,government,33
583,govt,9
584,grand,6
585,great,152
586,greatest,7
587,green,15
588,ground,10
589,group,29
590,grow,5
591,growing,6
592,growth,11
593,guess,22
594,guide,12
595,gun,11
596,guy,56
597,gym,11
598,haha,18
599,hair,11
600,half,26
601,hall,6
602,hand,26
603,happen,25
604,happened,18
605,happening,11
606,happens,16
607,happiness,5
608,happy,88
609,hard,33
610,hat,9
611,hate,37
612,head,28
613,health,32
614,healthcare,7
615,healthy,6
616,hear,37
617,heard,20
618,hearing,10
619,heart,23
620,held,7
621,hell,14
622,hello,12
623,help,73
624,helping,12
625,hey,24
626,high,23
627,higher,11
628,highlight,6
629,highly,5
630,hill,10
631,hillary,2
632,hire,6
633,hiring,2
634,history,34
635,hit,18
636,hold,14
637,holding,9
638,holiday,24
639,holy,9
640,home,64
641,honest,6
642,honestly,15
643,honor,7
644,hope,62
645,hopefully,12
646,hospital,15
647,hot,13
648,hour,42
649,house,56
650,housing,13
651,houston,0
652,htt,16
653,huge,20
654,human,27
655,hun,11
656,hurt,8
657,husband,13
658,idea,44
659,identify,4
660,ill,43
661,illegal,9
662,image,7
663,imagine,13
664,immigrant,8
665,immigration,9
666,impact,12
667,implementation,1
668,important,27
669,impossible,8
670,include,7
671,includes,4
672,including,18
673,increase,10
674,incredible,10
675,india,5
676,individual,6
677,industry,10
678,info,8
679,information,8
680,infrastructure,7
681,innovation,2
682,innovative,2
683,inside,14
684,insight,10
685,inspiring,8
686,instagram,10
687,instant,1
688,instead,20
689,insurance,4
690,integration,0
691,intelligence,3
692,interested,13
693,interesting,32
694,internal,3
695,international,14
696,internet,13
697,interview,17
698,introduction,0
699,investigation,12
700,investment,4
701,investor,4
702,iot,15
703,iphone,4
704,ireland,32
705,irish,26
706,island,11
707,isnt,23
708,israel,5
709,issue,41
710,itll,8
711,ive,58
712,james,10
713,january,5
714,java,1
715,jersey,4
716,jesus,12
717,jim,5
718,job,43
719,joe,5
720,john,22
721,johnson,7
722,join,30
723,joke,16
724,jon,6
725,jones,5
726,jordan,8
727,journal,4
728,journalist,16
729,journey,9
730,joy,9
731,judge,11
732,july,9
733,jump,5
734,june,10
735,junior,3
736,justice,14
737,kavanaugh,9
738,key,6
739,kick,10
740,kid,33
741,kill,12
742,killed,18
743,kind,25
744,king,8
745,knew,20
746,knock,2
747,know,160
748,knowledge,4
749,known,7
750,korea,3
751,lab,0
752,lack,6
753,lad,12
754,lady,22
755,lake,5
756,lana,0
757,language,13
758,large,5
759,largest,4
760,late,26
761,lately,10
762,later,13
763,latest,12
764,laugh,9
765,launch,12
766,law,22
767,lawyer,14
768,lead,19
769,leader,30
770,leadership,14
771,leading,5
772,leaf,3
773,league,17
774,learn,29
775,learned,11
776,learning,16
777,leave,22
778,leaving,14
779,left,34
780,leg,11
781,legal,9
782,legend,12
783,lesson,10
784,let,62
785,letter,11
786,level,15
787,library,14
788,lie,13
789,life,96
790,light,21
791,like,253
792,liked,8
793,likely,9
794,limited,8
795,line,37
796,link,12
797,linux,0
798,list,16
799,listen,16
800,listening,15
801,literally,21
802,little,51
803,live,52
804,lived,8
805,living,17
806,loan,4
807,local,25
808,located,0
809,location,7
810,lol,30
811,london,20
812,long,40
813,longer,12
814,look,100
815,looked,9
816,looking,56
817,lord,7
818,lose,18
819,loss,8
820,lost,26
821,lot,61
822,love,154
823,loved,23
824,lovely,28
825,loving,15
826,low,14
827,lower,10
828,luck,13
829,lucky,15
830,lunch,13
831,machine,7
832,mad,11
833,main,9
834,maintain,3
835,major,14
836,make,157
837,making,41
838,man,65
839,manage,1
840,management,3
841,manager,10
842,map,8
843,march,11
844,mark,13
845,market,17
846,marketing,14
847,martin,6
848,mary,4
849,mass,10
850,massive,7
851,master,10
852,match,15
853,mate,17
854,matter,21
855,maybe,29
856,mayor,9
857,mean,48
858,medical,6
859,medium,45
860,meet,24
861,meeting,22
862,member,19
863,memory,5
864,men,23
865,mental,6
866,mention,14
867,message,11
868,messi,0
869,met,11
870,mexico,6
871,michael,18
872,microsoft,1
873,middle,4
874,mile,10
875,military,7
876,million,28
877,min,9
878,mind,29
879,minimum,1
880,minister,13
881,minute,23
882,miss,23
883,missed,17
884,missing,8
885,mission,3
886,mistake,11
887,mix,4
888,mobile,6
889,model,7
890,modern,8
891,moment,26
892,monday,18
893,money,41
894,month,44
895,mood,8
896,morning,62
897,mother,10
898,mountain,4
899,moved,5
900,movie,11
901,moving,15
902,mrw,0
903,mueller,4
904,multiple,4
905,mum,12
906,murder,11
907,music,24
908,named,6
909,nation,12
910,national,31
911,navigation,0
912,near,18
913,nearly,23
914,need,158
915,needed,10
916,negative,3
917,net,2
918,netflix,6
919,network,8
920,new,211
921,news,55
922,nice,29
923,night,92
924,nnt,0
925,nominee,5
926,north,13
927,note,15
928,november,6
929,number,20
930,nurse,0
931,nyc,7
932,obama,11
933,occurred,2
934,offer,16
935,offering,7
936,office,21
937,officer,9
938,official,20
939,ohio,1
940,oil,4
941,okay,10
942,old,43
943,omg,17
944,online,19
945,open,39
946,opening,9
947,operation,2
948,opinion,12
949,opportunity,19
950,option,10
951,oracle,0
952,orange,9
953,order,17
954,organization,5
955,original,6
956,outside,14
957,overview,4
958,owner,9
959,page,17
960,paid,17
961,pain,6
962,painted,0
963,painting,7
964,panel,11
965,paper,9
966,parent,17
967,paris,9
968,park,15
969,partner,11
970,party,42
971,pas,11
972,passion,6
973,passionate,1
974,past,20
975,patient,9
976,paul,14
977,pay,30
978,paying,12
979,payment,4
980,peace,9
981,penny,6
982,people,191
983,perfect,21
984,perform,4
985,performance,20
986,permanent,2
987,person,33
988,personal,13
989,personalized,0
990,peter,7
991,petition,9
992,phone,33
993,photo,37
994,physical,2
995,pic,22
996,picard,1
997,pick,14
998,picture,20
999,piece,21
1000,pink,3
1001,place,50
1002,plan,28
1003,planet,8
1004,planned,7
1005,planning,8
1006,platform,8
1007,play,54
1008,played,14
1009,player,33
1010,playing,18
1011,plus,8
1012,plz,0
1013,podcast,8
1014,point,41
1015,police,22
1016,policy,21
1017,political,14
1018,politician,10
1019,politics,13
1020,poll,16
1021,pool,10
1022,poor,16
1023,pop,6
1024,popular,7
1025,position,9
1026,positive,7
1027,possible,9
1028,possibly,12
1029,post,41
1030,posted,5
1031,posting,2
1032,power,30
1033,powerful,13
1034,ppl,11
1035,practice,5
1036,present,14
1037,president,45
1038,presidential,7
1039,press,14
1040,prestigious,2
1041,pretty,31
1042,price,11
1043,pride,6
1044,primary,4
1045,principal,1
1046,private,10
1047,pro,10
1048,probably,21
1049,problem,25
1050,process,7
1051,product,9
1052,production,7
1053,professional,10
1054,program,10
1055,project,18
1056,promise,6
1057,proof,6
1058,property,8
1059,protect,10
1060,protest,13
1061,proud,17
1062,provide,11
1063,provider,1
1064,provides,3
1065,public,31
1066,published,3
1067,pull,9
1068,purchase,4
1069,purpose,4
1070,push,12
1071,putin,7
1072,putting,10
1073,python,3
1074,quality,15
1075,queen,9
1076,question,34
1077,quick,14
1078,quickly,9
1079,quite,22
1080,quote,10
1081,race,18
1082,rain,10
1083,raise,7
1084,rate,9
1085,reach,11
1086,read,60
1087,reading,11
1088,ready,23
1089,real,42
1090,realise,13
1091,reality,11
1092,really,98
1093,reason,26
1094,received,7
1095,recent,12
1096,recently,8
1097,record,23
1098,recruiting,4
1099,red,24
1100,ref,1
1101,refugee,16
1102,regular,5
1103,related,3
1104,relationship,9
1105,release,6
1106,released,4
1107,remain,5
1108,remember,22
1109,reminder,9
1110,remote,1
1111,repeat,8
1112,repec,0
1113,report,30
1114,reporter,11
1115,reporting,4
1116,republican,18
1117,req,1
1118,required,2
1119,requirement,3
1120,requisition,0
1121,research,19
1122,resolution,7
1123,resource,9
1124,respect,16
1125,response,12
1126,responsibility,3
1127,responsible,5
1128,rest,12
1129,result,14
1130,resume,1
1131,return,10
1132,retweet,15
1133,reuters,0
1134,review,18
1135,rey,0
1136,rich,7
1137,richard,6
1138,right,125
1139,rise,5
1140,risk,5
1141,road,14
1142,robert,5
1143,rock,9
1144,role,9
1145,roll,6
1146,room,19
1147,rose,5
1148,round,15
1149,royal,6
1150,rule,18
1151,run,35
1152,running,14
1153,rural,8
1154,russia,14
1155,russian,17
1156,sad,24
1157,sadly,10
1158,safe,11
1159,safety,6
1160,said,53
1161,salary,2
1162,sale,18
1163,san,4
1164,sap,0
1165,saturday,24
1166,saudi,5
1167,save,19
1168,saved,6
1169,saving,5
1170,saw,29
1171,say,139
1172,saying,25
1173,scene,12
1174,schedule,4
1175,school,46
1176,science,16
1177,scientist,2
1178,score,11
1179,scotland,21
1180,scott,9
1181,scottish,22
1182,scrum,1
1183,sea,3
1184,search,5
1185,season,34
1186,seat,8
1187,second,25
1188,secret,10
1189,security,25
1190,seeing,23
1191,seek,3
1192,seeking,7
1193,seen,32
1194,self,9
1195,sell,9
1196,selling,11
1197,senate,7
1198,senator,10
1199,send,20
1200,sending,11
1201,senior,3
1202,sense,9
1203,sent,11
1204,september,8
1205,series,21
1206,seriously,15
1207,serve,2
1208,server,4
1209,service,27
1210,session,8
1211,set,34
1212,sex,10
1213,sexual,8
1214,shall,4
1215,shame,11
1216,share,25
1217,sharing,8
1218,shes,11
1219,shift,7
1220,shirt,7
1221,shit,19
1222,shite,13
1223,shoot,7
1224,shooting,7
1225,shop,12
1226,shopping,18
1227,short,25
1228,shot,24
1229,shouldnt,6
1230,shout,9
1231,showing,10
1232,sign,23
1233,signed,7
1234,silence,7
1235,silver,5
1236,similar,9
1237,simple,7
1238,simply,9
1239,single,20
1240,sister,8
1241,site,7
1242,sitting,9
1243,situation,8
1244,skill,8
1245,skip,3
1246,sky,13
1247,sleep,13
1248,small,17
1249,smart,8
1250,smile,7
1251,smith,3
1252,snapchat,12
1253,snow,15
1254,social,44
1255,society,5
1256,software,3
1257,sold,8
1258,solution,9
1259,son,9
1260,song,18
1261,soon,29
1262,sorry,30
1263,sound,21
1264,source,11
1265,south,18
1266,southern,5
1267,space,17
1268,speak,15
1269,speaking,13
1270,special,19
1271,specialist,1
1272,specified,0
1273,speech,13
1274,speed,6
1275,spend,8
1276,spending,7
1277,spent,17
1278,spirit,8
1279,sport,13
1280,spot,8
1281,spring,7
1282,sqft,0
1283,sql,1
1284,squad,5
1285,stack,0
1286,staff,10
1287,stage,16
1288,stand,11
1289,standard,9
1290,standing,5
1291,star,19
1292,start,47
1293,started,20
1294,starting,9
1295,startup,1
1296,state,39
1297,statement,15
1298,station,11
1299,status,8
1300,stay,24
1301,step,21
1302,stephen,6
1303,steve,5
1304,stock,2
1305,stop,47
1306,stopped,9
1307,store,16
1308,storm,2
1309,story,61
1310,straight,11
1311,strategy,7
1312,streaming,5
1313,street,27
1314,strong,12
1315,student,24
1316,studio,10
1317,study,19
1318,stuff,24
1319,stupid,14
1320,style,8
1321,success,12
1322,successful,6
1323,suck,8
1324,summary,3
1325,summer,26
1326,sun,18
1327,sunday,32
1328,super,22
1329,support,39
1330,supporting,9
1331,supreme,12
1332,sure,52
1333,surprise,7
1334,survive,6
1335,suspect,7
1336,syria,6
1337,table,9
1338,taken,8
1339,taking,28
1340,talent,7
1341,talented,2
1342,talk,41
1343,talking,17
1344,tank,1
1345,target,7
1346,tax,17
1347,tea,8
1348,teach,6
1349,teacher,8
1350,teaching,9
1351,team,51
1352,tear,8
1353,tech,17
1354,technical,1
1355,technician,0
1356,technology,6
1357,tell,51
1358,telling,9
1359,term,16
1360,test,12
1361,testing,8
1362,texas,5
1363,thank,82
1364,thanks,96
1365,thats,77
1366,therapist,2
1367,therapy,2
1368,theyre,19
1369,thing,109
1370,think,150
1371,thinking,31
1372,tho,14
1373,thought,59
1374,thousand,13
1375,thread,17
1376,threat,8
1377,thursday,12
1378,ticket,26
1379,tie,7
1380,till,7
1381,tim,6
1382,time,214
1383,tip,19
1384,title,5
1385,today,190
1386,told,33
1387,tom,5
1388,tomorrow,51
1389,tonight,72
1390,took,25
1391,tool,9
1392,tory,13
1393,total,10
1394,totally,14
1395,touch,12
1396,tough,8
1397,tour,12
1398,tower,6
1399,town,7
1400,track,9
1401,trade,9
1402,trading,2
1403,traffic,7
1404,train,20
1405,training,12
1406,transformation,5
1407,travel,2
1408,trend,9
1409,tried,15
1410,trip,18
1411,true,21
1412,truly,10
1413,trump,88
1414,trust,13
1415,truth,10
1416,try,37
1417,trying,32
1418,tuesday,15
1419,tune,9
1420,turn,28
1421,turned,13
1422,tweet,47
1423,twitter,41
1424,type,10
1425,uber,4
1426,understand,15
1427,union,9
1428,unit,3
1429,united,11
1430,university,9
1431,unknown,2
1432,unless,9
1433,upcoming,9
1434,update,16
1435,updated,3
1436,usa,1
1437,use,64
1438,used,32
1439,user,11
1440,using,32
1441,valley,4
1442,value,11
1443,van,14
1444,vancouver,14
1445,various,5
1446,vega,7
1447,veteran,6
1448,victim,9
1449,video,69
1450,view,20
1451,violence,8
1452,vision,6
1453,visit,18
1454,voice,20
1455,vote,38
1456,voter,15
1457,voting,14
1458,wait,47
1459,waiting,20
1460,wake,10
1461,walk,25
1462,walking,12
1463,wall,18
1464,want,120
1465,wanted,19
1466,war,22
1467,warning,11
1468,washington,6
1469,wasnt,11
1470,waste,10
1471,watch,55
1472,watched,12
1473,watching,39
1474,water,16
1475,way,96
1476,wear,18
1477,wearing,12
1478,weather,17
1479,web,3
1480,website,12
1481,wednesday,8
1482,wee,11
1483,week,94
1484,weekend,45
1485,weight,4
1486,weird,15
1487,welcome,14
1488,went,32
1489,west,14
1490,weve,18
1491,whats,18
1492,white,31
1493,wife,12
1494,wild,10
1495,win,67
1496,window,5
1497,winner,19
1498,winning,6
1499,wish,32
1500,woman,103
1501,wonder,9
1502,wonderful,19
1503,wont,21
1504,wood,8
1505,word,39
1506,work,120
1507,worked,8
1508,worker,12
1509,working,35
1510,world,92
1511,worry,11
1512,worse,12
1513,worst,21
1514,worth,25
1515,wouldnt,9
1516,wow,29
1517,writer,11
1518,writing,13
1519,wrong,17
1520,wrote,10
1521,xmas,10
1522,yeah,26
1523,year,205
1524,yearold,6
1525,yellow,2
1526,yes,49
1527,yesterday,25
1528,york,10
1529,youll,14
1530,young,37
1531,youre,67
1532,youth,5
1533,youtube,7
1534,youve,16
