0.15354396708729592,NA,NA
-4.93737221352035e-05,NA,NA
-0.08142681735906492,NA,NA
-0.06743928531030509,NA,NA
-0.24774464277792466,NA,NA
0.028503533532228873,NA,NA
0.5824362510623038,NA,NA
0.4119987763822722,NA,NA
0.013088047152586308,NA,NA
0.22045844726325678,NA,NA
0.18914365563762353,NA,NA
-0.3437476037243165,NA,NA
0.28387542868493876,NA,NA
-0.24373022379005707,NA,NA
0.05094705076935365,NA,NA
-0.25481771078111215,NA,NA
-0.033173533283042504,NA,NA
0.12876903063776227,NA,NA
0.3259781490361301,NA,NA
-0.410793053701168,NA,NA
-0.0628498076980619,NA,NA
0.5243610671049199,NA,NA
0.10591999584900716,NA,NA
0.25581550067964715,NA,NA
-0.2682436601745853,NA,NA
-0.12551071756594212,NA,NA
0.43850482771446636,NA,NA
0.5607756970404525,NA,NA
-0.0599843581155104,NA,NA
-0.10739896167979941,NA,NA
0.005667071278724885,NA,NA
-0.13156110898054466,NA,NA
0.07848308416224477,NA,NA
0.24904887806212778,NA,NA
0.4274310753110923,NA,NA
0.18019680828855714,NA,NA
0.06159864505920072,NA,NA
0.10378641993316422,NA,NA
0.006538256021263312,NA,NA
0.359837437738829,NA,NA
-0.0379494577068681,NA,NA
-0.1505463039156506,NA,NA
-0.17424601074197915,NA,NA
-0.03607145312544414,NA,NA
0.2162446178024944,NA,NA
0.20777809118243384,NA,NA
0.04515214071920687,NA,NA
-0.006115984064030684,NA,NA
0.1591604008050265,NA,NA
-0.42925730870386747,NA,NA
-0.9274166041592588,NA,NA
-0.42622126141906713,NA,NA
0.13142146246753725,NA,NA
-0.40176495950787827,NA,NA
0.06511173099755121,NA,NA
-0.4859175803739073,NA,NA
-0.04756079984740613,NA,NA
-0.3858810558045311,NA,NA
0.3445315515800728,NA,NA
0.011797787951166374,NA,NA
-0.007318194687532489,NA,NA
-0.3368184189032321,NA,NA
-0.015932669143706824,NA,NA
-0.3076484866159391,NA,NA
-0.09074136556048501,NA,NA
-0.09533362910000635,NA,NA
0.16500154609902862,NA,NA
-0.035952001161947425,NA,NA
0.32785718117183155,NA,NA
-0.23311026088044356,NA,NA
-0.1409848437130657,NA,NA
0.030571962403906427,NA,NA
-0.12060524797288331,NA,NA
-0.04185818762805123,NA,NA
0.07224492089331039,NA,NA
0.16909262683466197,NA,NA
0.23741332212548286,NA,NA
-0.252995401066742,NA,NA
0.29083210690535977,NA,NA
-0.0655509480277131,NA,NA
0.019735324731130433,NA,NA
-0.201088890496271,NA,NA
-0.12314746405464275,NA,NA
-0.04226858941345342,NA,NA
0.019140417827510487,NA,NA
-0.21549298813050308,NA,NA
-0.30992023835179133,NA,NA
0.022564655488551997,NA,NA
0.21812319533882898,NA,NA
-0.1726386723847138,NA,NA
-0.03239985301232762,NA,NA
0.12541848097103345,NA,NA
-0.5295136530265553,NA,NA
-0.10033909411887976,NA,NA
-0.3115192066215614,NA,NA
-0.21701402053302324,NA,NA
0.08500997196973771,NA,NA
-0.1199072709370273,NA,NA
0.136614723603335,NA,NA
-0.014863330868657858,NA,NA
0.40533939620434845,NA,NA
-0.14968550302126032,NA,NA
-0.03702501763473313,NA,NA
0.27358522782998884,NA,NA
-0.07628816984541548,NA,NA
-0.20818462947373712,NA,NA
-0.33476813658216675,NA,NA
0.07624847734990636,NA,NA
0.036400937495484,NA,NA
-0.30444497608492965,NA,NA
-0.011093672148162237,NA,NA
0.008923905935353301,NA,NA
0.05950993733450363,NA,NA
0.14487373290887987,NA,NA
0.16378208485029927,NA,NA
-0.20506881356165188,NA,NA
0.04080884085204333,NA,NA
-0.45085178475105175,NA,NA
0.10061739417346631,NA,NA
-0.3620795468269794,NA,NA
0.19190630197356826,NA,NA
0.0074261688740566495,NA,NA
-0.11474658139698696,NA,NA
0.0626725536117928,NA,NA
0.11845683826809164,NA,NA
-0.06874563042458236,NA,NA
0.07616246315577885,NA,NA
-0.13265922986019882,NA,NA
-0.03682208541497683,NA,NA
0.02341552018540093,NA,NA
-0.3345195934585601,NA,NA
-0.4837255051901502,NA,NA
-0.23083040837326885,NA,NA
-0.4779378218559997,NA,NA
-0.29772068707989535,NA,NA
0.014290254299173842,NA,NA
-0.22958861869510128,NA,NA
-0.21105190999704512,NA,NA
0.06499238368339015,NA,NA
0.015380853139554727,NA,NA
0.1229978823065179,NA,NA
0.15595992417598745,NA,NA
0.12304879665463002,NA,NA
0.16428629693622046,NA,NA
0.465589399095336,NA,NA
-0.1329686664405683,NA,NA
-0.028139652916199572,NA,NA
0.334515032542714,NA,NA
0.24363010694284717,NA,NA
-0.2976760553591567,NA,NA
0.17091523064743785,NA,NA
-0.2755404665938838,NA,NA
-0.05138563501937602,NA,NA
0.12050393197553254,NA,NA
-0.1122254923738787,NA,NA
-0.11746873091503288,NA,NA
-0.5662878707879642,NA,NA
-0.04084584387798689,NA,NA
-0.008795704124061028,NA,NA
-0.1152079845341954,NA,NA
-0.30709410760696826,NA,NA
-0.14401251069460644,NA,NA
0.19821647207134885,NA,NA
0.02938002074227318,NA,NA
-0.27851191039193396,NA,NA
-0.15670540531549101,NA,NA
-0.35538157230623496,NA,NA
0.07993814893302056,NA,NA
0.42035415886424543,NA,NA
-0.651147795916466,NA,NA
0.26461278801188104,NA,NA
0.2975260514377555,NA,NA
0.13470725287793414,NA,NA
-0.4287019839424707,NA,NA
-0.01785461163489814,NA,NA
-0.5557913593365779,NA,NA
-0.30359059656730786,NA,NA
0.26651340250560723,NA,NA
-0.13147866604288397,NA,NA
-0.21940805556404744,NA,NA
-0.20562784569915826,NA,NA
0.45557131096421666,NA,NA
-0.25540039052066105,NA,NA
0.025591859805597836,NA,NA
0.024357052337627933,NA,NA
-0.09335752053257489,NA,NA
-0.23637775223888005,NA,NA
-0.29400301514762744,NA,NA
0.03732391498967269,NA,NA
0.3504976222120169,NA,NA
0.22023409409577088,NA,NA
0.18998164114927338,NA,NA
0.07184669849383975,NA,NA
-0.18778420777860746,NA,NA
0.024962049891754434,NA,NA
0.08509687729895213,NA,NA
-0.12028065210712933,NA,NA
-0.19424120839278422,NA,NA
0.017661550638290373,NA,NA
0.4890083321585276,NA,NA
-0.1385141707311857,NA,NA
-0.2689585407904512,NA,NA
-0.14486893295372766,NA,NA
-0.2903711278693421,NA,NA
0.05525324754233381,NA,NA
-0.40296495538189564,NA,NA
0.04961576191871694,NA,NA
0.03791873244292073,NA,NA
-0.6667690175784564,NA,NA
0.0386831398520721,NA,NA
-0.12410043992081303,NA,NA
-0.11573403909975628,NA,NA
-0.0729524321537758,NA,NA
-0.045898200338015,NA,NA
-0.13135877350758957,NA,NA
-0.05176397803432893,NA,NA
-0.05661104945108316,NA,NA
0.2522685979548948,NA,NA
-0.19113038191991374,NA,NA
0.069909623575944,NA,NA
0.20544194950701578,NA,NA
-0.22599768700305584,NA,NA
0.08794484138101917,NA,NA
-0.11050253156320887,NA,NA
-0.3403806203430351,NA,NA
-0.27734691893182717,NA,NA
-0.0864585116023939,NA,NA
-0.029682779650196056,NA,NA
0.3974941642948847,NA,NA
0.10859346471055063,NA,NA
0.07709670958377526,NA,NA
-0.06469875525475394,NA,NA
0.03949887284118339,NA,NA
0.26622217204890325,NA,NA
-0.16016589449822913,NA,NA
-0.31694029320643063,NA,NA
0.11890781895925137,NA,NA
-0.07780628955336026,NA,NA
-0.2593251834329579,NA,NA
-0.028373629329279237,NA,NA
0.04171347782610306,NA,NA
0.05103338065325647,NA,NA
0.31867754307094476,NA,NA
-0.11959315617503646,NA,NA
0.2654900808551004,NA,NA
-0.2796692329377992,NA,NA
-0.12233060746320057,NA,NA
0.15122536204888165,NA,NA
-0.26662136090611305,NA,NA
0.19631510528350393,NA,NA
0.05964276656818567,NA,NA
-0.33694144080591687,NA,NA
-0.062190407493014715,NA,NA
0.3128522998935298,NA,NA
-0.03997319745872685,NA,NA
-0.058279223181697634,NA,NA
-0.15081983624344766,NA,NA
-0.37898280101633497,NA,NA
0.10148867692549084,NA,NA
-0.17488242483784175,NA,NA
-0.2353912809669326,NA,NA
0.2907875842643814,NA,NA
0.1543716994810506,NA,NA
-0.2929679147759551,NA,NA
-0.4802245887937927,NA,NA
-0.022991714994166305,NA,NA
-0.23022460073547849,NA,NA
0.26465564025860217,NA,NA
-0.452186592405768,NA,NA
-0.15954350835219575,NA,NA
0.04076721840128926,NA,NA
-0.4113632227630222,NA,NA
-0.21060432573620716,NA,NA
0.14170189295658764,NA,NA
-0.5130811269698455,NA,NA
0.06683899347625201,NA,NA
0.02814095600835889,NA,NA
-0.27383709607532786,NA,NA
-0.00666824620789398,NA,NA
-0.04289890721897848,NA,NA
0.13989443826983244,NA,NA
-0.15142593091685647,NA,NA
-0.09247462451214737,NA,NA
-0.20236111141227542,NA,NA
-0.0018184998447484425,NA,NA
-0.3862357127171016,NA,NA
-0.07675871820472582,NA,NA
-0.02921188419365964,NA,NA
-0.12900746369810706,NA,NA
-0.06872771959533155,NA,NA
0.1396669733811624,NA,NA
-0.301262351024088,NA,NA
-0.32878149514218097,NA,NA
-0.3753035789126514,NA,NA
0.16589878770812286,NA,NA
0.32299904094095144,NA,NA
-0.09334074610650947,NA,NA
-0.14975426249432297,NA,NA
-0.2252051542449423,NA,NA
-0.4941759967929883,NA,NA
0.4408504378225005,NA,NA
-0.04873736317694357,NA,NA
0.42863035057084814,NA,NA
-0.43077513292918757,NA,NA
0.21636903655135434,NA,NA
-0.1154711402053411,NA,NA
0.47989207753569335,NA,NA
-0.178793707857288,NA,NA
0.03573784201699759,NA,NA
-0.10591650958811745,NA,NA
0.4098763741372172,NA,NA
-0.2926288650112677,NA,NA
-0.03811439931119124,NA,NA
-0.09784112605498603,NA,NA
-0.25284372328364985,NA,NA
-0.2646643698236414,NA,NA
-0.11114763114709943,NA,NA
-0.32458281780581766,NA,NA
-0.1279909863656055,NA,NA
0.3709726081228628,NA,NA
-0.3634407725271246,NA,NA
-0.229549361403732,NA,NA
-0.06009450644645734,NA,NA
0.020024261131184783,NA,NA
-0.029553092666763654,NA,NA
0.08055488712189486,NA,NA
-0.053489728405203295,NA,NA
-0.09882944584005189,NA,NA
0.1266896815465485,NA,NA
0.6061931717854223,NA,NA
-0.5963473226907875,NA,NA
0.20737046330475084,NA,NA
0.07623986207876661,NA,NA
0.29072881198978945,NA,NA
0.1410780024487139,NA,NA
-0.02430087883455071,NA,NA
-0.18072871296628584,NA,NA
-0.2220923230126384,NA,NA
-0.12184215544160518,NA,NA
0.03941366386771845,NA,NA
-0.13758601050290042,NA,NA
-0.1337766095145983,NA,NA
0.06967270770050187,NA,NA
-0.19812941493608432,NA,NA
-0.025111377438085284,NA,NA
-0.17124530530216994,NA,NA
0.19395675503995718,NA,NA
-0.011902442352691249,NA,NA
0.3113979936962139,NA,NA
-0.33172082322096413,NA,NA
-0.3206694297705473,NA,NA
-0.37256007298723115,NA,NA
-0.3286021954211787,NA,NA
-0.05519132528571858,NA,NA
-0.15762635364503888,NA,NA
-0.16641092332519442,NA,NA
0.014409406595056464,NA,NA
0.036744782603024766,NA,NA
0.1346717655723879,NA,NA
0.20315214446677896,NA,NA
-0.295802793190292,NA,NA
0.35886319141517803,NA,NA
0.05670312536702684,NA,NA
0.053286998592318995,NA,NA
-0.08135734529148257,NA,NA
0.04967468895469562,NA,NA
-0.41909271121714214,NA,NA
0.08623428462215234,NA,NA
0.1023825110311001,NA,NA
-0.26677803040601367,NA,NA
0.28062660507552656,NA,NA
0.4008389306423037,NA,NA
0.03263831967145904,NA,NA
0.08044175730121958,NA,NA
-0.36699032050018854,NA,NA
0.07986639125474138,NA,NA
-0.2544403912454707,NA,NA
-0.1406236358419092,NA,NA
-0.04264164907588594,NA,NA
-0.06997082656590684,NA,NA
0.40907977666157785,NA,NA
-0.30949455394403136,NA,NA
-0.14990841459621054,NA,NA
0.10204097020159732,NA,NA
-0.13820766675231852,NA,NA
-0.10949109142452805,NA,NA
0.4091373545914494,NA,NA
-0.11696724194817427,NA,NA
-0.027729216089239877,NA,NA
-0.03485753976731642,NA,NA
0.019871940362393724,NA,NA
0.29386078907012947,NA,NA
-0.14960404715856207,NA,NA
0.3204418663124646,NA,NA
0.31943418778889393,NA,NA
-0.027873711887245977,NA,NA
0.3387414898258273,NA,NA
-0.3240735544814089,NA,NA
-0.278946492401966,NA,NA
0.42288231764208567,NA,NA
-0.30471147788881253,NA,NA
0.13490938279974285,NA,NA
-0.1651256984383054,NA,NA
-0.08169535676101251,NA,NA
-0.14682835969501365,NA,NA
-0.1293234015276013,NA,NA
0.18516743153069898,NA,NA
-0.3087071803198574,NA,NA
-0.10462182782152288,NA,NA
-0.22110852540050838,NA,NA
-0.16197693393082693,NA,NA
-0.36925995568558684,NA,NA
-0.31855074310983245,NA,NA
-0.2696262158207997,NA,NA
-0.1057544456869088,NA,NA
0.3788139711026045,NA,NA
-0.00035238113967025965,NA,NA
0.03477014130833873,NA,NA
0.16968251438859028,NA,NA
-0.07905764944476727,NA,NA
-0.01191265595176053,NA,NA
0.2130401323982707,NA,NA
-0.04995460186939579,NA,NA
0.10212608962515336,NA,NA
0.08692803725616306,NA,NA
-0.206329937334307,NA,NA
0.08307545441859748,NA,NA
-0.04746917898615076,NA,NA
-0.05825779014265667,NA,NA
-0.22183815733533693,NA,NA
-0.18914896752354854,NA,NA
-0.07705457451458528,NA,NA
0.007971185055927204,NA,NA
-0.325577113046383,NA,NA
-0.3162270273489203,NA,NA
0.516373711403965,NA,NA
0.12436447858747549,NA,NA
-0.18697202370657795,NA,NA
0.3902948040160137,NA,NA
0.36963917801918245,NA,NA
-0.09537506657523825,NA,NA
-0.13495130486338297,NA,NA
-0.2690503898101453,NA,NA
0.287164570459323,NA,NA
0.12866051221303745,NA,NA
0.2813137409619124,NA,NA
0.12722299472179263,NA,NA
-0.05085581527773657,NA,NA
0.10669971915897261,NA,NA
-0.3373563359332373,NA,NA
-0.027807468073630548,NA,NA
0.5445114610082961,NA,NA
-0.12736979354148414,NA,NA
0.24145857999703416,NA,NA
0.11839627643898572,NA,NA
0.12215044017010158,NA,NA
0.2874014623007463,NA,NA
-0.06035539600177047,NA,NA
0.2066638868049224,NA,NA
-0.028003339893406354,NA,NA
-0.27945618418896456,NA,NA
0.11241890161725435,NA,NA
-0.391725754070159,NA,NA
0.06288898913510764,NA,NA
-0.08577324366700556,NA,NA
0.019121629195729975,NA,NA
0.3441144422436325,NA,NA
-0.06988715165793684,NA,NA
-0.23776713790103013,NA,NA
0.315999183507455,NA,NA
-0.296489093402158,NA,NA
0.22111146091240755,NA,NA
0.17750698044080676,NA,NA
0.0645334152583764,NA,NA
-0.1856568638444562,NA,NA
0.10767578303252594,NA,NA
-0.7077820576637435,NA,NA
0.2010088686019492,NA,NA
-0.07674450944985778,NA,NA
-0.1945635545656631,NA,NA
0.05879155774475497,NA,NA
-0.10942982579974624,NA,NA
-0.19353559564974682,NA,NA
-0.252898067142371,NA,NA
-0.1495455382428864,NA,NA
0.11011446859215537,NA,NA
0.17522069920895086,NA,NA
-0.5131645854876159,NA,NA
-0.042234408154375715,NA,NA
0.37726077600380736,NA,NA
0.041030085184643586,NA,NA
0.25146572217994645,NA,NA
0.3392195341790549,NA,NA
-0.057030766714177505,NA,NA
-0.07623389650809359,NA,NA
0.17522811380017328,NA,NA
0.6581086570238865,NA,NA
0.06857655390307865,NA,NA
-0.22281078599867443,NA,NA
0.3778746836692753,NA,NA
-0.5153983269617813,NA,NA
0.1539533428632044,NA,NA
0.10084849672813914,NA,NA
-0.42135085721634796,NA,NA
-0.3469712252754077,NA,NA
-0.2785460838804681,NA,NA
0.11778515323090405,NA,NA
-0.11785118902352644,NA,NA
-0.3424101245596542,NA,NA
-0.3405254753915363,NA,NA
-0.16853266015542098,NA,NA
0.1892337876857711,NA,NA
-0.48748319958722053,NA,NA
-0.24202496796946196,NA,NA
-0.15012782542103767,NA,NA
0.0027132637910180757,NA,NA
0.03832541838933202,NA,NA
0.1737832475527574,NA,NA
0.5039922628492944,NA,NA
-0.5511632086639031,NA,NA
0.24409383023005515,NA,NA
-0.14056709547637922,NA,NA
-0.46628869897536424,NA,NA
0.2238316553956856,NA,NA
-0.2094347855610309,NA,NA
-0.1269866762629567,NA,NA
-0.052608816178884264,NA,NA
0.35445929070786514,NA,NA
-0.11114243731480843,NA,NA
0.034075976697713034,NA,NA
-0.2319294830626357,NA,NA
0.12009284225623681,NA,NA
0.39040129738188867,NA,NA
0.40721596260894727,NA,NA
0.28718980752043083,NA,NA
-0.16301884763457938,NA,NA
-0.05979254071512913,NA,NA
-0.06986409749963195,NA,NA
0.08824311973874432,NA,NA
0.02150292259944859,NA,NA
0.5452407491316732,NA,NA
-0.36917627147344995,NA,NA
-0.043603899068016025,NA,NA
-0.10608488665852397,NA,NA
0.4147858546282051,NA,NA
0.5496947158588068,NA,NA
-0.052743158861616096,NA,NA
0.08207991459654061,NA,NA
0.20699963183984693,NA,NA
0.05531335170865314,NA,NA
-0.3649304715031661,NA,NA
-0.04067204028870714,NA,NA
-0.17463810462738075,NA,NA
-0.2681048676349705,NA,NA
0.1786777120434245,NA,NA
0.04710570364855584,NA,NA
0.19608386771090364,NA,NA
-0.23036257429650037,NA,NA
0.015950665621340305,NA,NA
0.12706709500842336,NA,NA
-0.21675036975604847,NA,NA
0.055105960572734126,NA,NA
-0.1291404625050363,NA,NA
-0.22878546078484321,NA,NA
0.3470847500957182,NA,NA
-0.6851260285174521,NA,NA
-0.1775273062431371,NA,NA
0.586024566002377,NA,NA
-0.39730222734418097,NA,NA
0.021536073463603055,NA,NA
-0.11233343245591147,NA,NA
0.5724285132616742,NA,NA
0.05757107200637285,NA,NA
0.06828626051300495,NA,NA
0.2572792379841091,NA,NA
-0.3372128964109165,NA,NA
-0.5920993380883851,NA,NA
0.17336553500711901,NA,NA
-0.17670628616218662,NA,NA
0.20217935329838302,NA,NA
0.1815244545173964,NA,NA
-0.10821653782007176,NA,NA
0.06490185692046847,NA,NA
0.15392668969752998,NA,NA
0.11990425577869167,NA,NA
-0.42325702335708126,NA,NA
0.2526105765048082,NA,NA
0.0005662790238296368,NA,NA
0.460561501470654,NA,NA
0.1615236718001432,NA,NA
0.07438896771797697,NA,NA
0.032439597286955245,NA,NA
-0.3442182220576381,NA,NA
-0.028743848318491527,NA,NA
-0.021373252411297894,NA,NA
0.34721081688068034,NA,NA
0.03705595495880819,NA,NA
0.40855220364570705,NA,NA
0.17688110216109165,NA,NA
0.16592286343984206,NA,NA
0.13674838311024687,NA,NA
-0.07148173344042949,NA,NA
0.04616803046862931,NA,NA
0.07082311080453661,NA,NA
0.10152446897155723,NA,NA
0.2886242690893109,NA,NA
-0.18053083990963897,NA,NA
0.02201973269756864,NA,NA
0.4286572172634912,NA,NA
-0.35440941421948213,NA,NA
-0.13518197565791557,NA,NA
-0.5439805241168765,NA,NA
-0.16459204782441347,NA,NA
0.19952892767386146,NA,NA
-0.3002051358031324,NA,NA
0.33450998500525875,NA,NA
-0.2980506739370206,NA,NA
0.04741236039834241,NA,NA
-0.004998004336021257,NA,NA
0.21505317740715477,NA,NA
0.21111345425231975,NA,NA
-0.09696524200497085,NA,NA
0.015272765771628793,NA,NA
-0.18926700609835773,NA,NA
-0.07647685232815758,NA,NA
-0.28459943453876724,NA,NA
0.2754470906511135,NA,NA
0.028414632263082804,NA,NA
-0.11519344550106268,NA,NA
0.5140907771611477,NA,NA
-0.09410511167413248,NA,NA
0.30609408440679925,NA,NA
0.009870990467432988,NA,NA
0.12451268822665963,NA,NA
0.2930933228669043,NA,NA
-0.1543295721232092,NA,NA
0.08930608701618636,NA,NA
0.1767121695373175,NA,NA
0.23929743277176252,NA,NA
-0.031937392259039105,NA,NA
-0.08634198053424295,NA,NA
-0.1744730767083504,NA,NA
0.0911335319043439,NA,NA
-0.11731440536082609,NA,NA
0.0010109884093472442,NA,NA
0.1506074065391607,NA,NA
0.252730393808826,NA,NA
0.06100480495709375,NA,NA
-0.08652650970710703,NA,NA
0.4083065989930706,NA,NA
-0.38493823535088323,NA,NA
0.24601413443569686,NA,NA
-0.22434200053548423,NA,NA
-0.18720365248485163,NA,NA
-0.10749921714158803,NA,NA
-0.3752247311608501,NA,NA
0.1031893754745777,NA,NA
-0.005328234455665809,NA,NA
-0.14135839860040864,NA,NA
0.08540724774031641,NA,NA
-0.10403373807113246,NA,NA
0.21316789548730836,NA,NA
0.11782355775928716,NA,NA
0.09010957708041879,NA,NA
-0.1361529301528948,NA,NA
-0.05074160729118723,NA,NA
0.02538415712070793,NA,NA
0.44980320564847465,NA,NA
0.04984971924947759,NA,NA
-0.07886593623231394,NA,NA
0.12519363461043334,NA,NA
-0.174488086857519,NA,NA
0.04242306835235097,NA,NA
-0.09450528101874353,NA,NA
-0.1271860414396188,NA,NA
0.01097500287847613,NA,NA
0.40020664417848106,NA,NA
-0.22429798399147025,NA,NA
-0.027746643451399225,NA,NA
-0.6960204545653963,NA,NA
-0.2599219045248418,NA,NA
0.10597642869145013,NA,NA
-0.100145034914954,NA,NA
0.0073328632120358995,NA,NA
0.3584983403587495,NA,NA
-0.4326411259937853,NA,NA
0.18036251632715586,NA,NA
0.11096201289932836,NA,NA
0.1620196879395418,NA,NA
0.6388754166610704,NA,NA
0.22980087891874815,NA,NA
0.18070919813019098,NA,NA
0.3289386999339717,NA,NA
-0.006799240098753096,NA,NA
-0.10135869241480233,NA,NA
0.10138554943895911,NA,NA
-0.09873160422986621,NA,NA
0.03753493777432204,NA,NA
-0.07170769705526774,NA,NA
-0.2603183481257962,NA,NA
-0.04182461207798229,NA,NA
-0.3438421392011834,NA,NA
0.012018060694737818,NA,NA
-0.04554347804761752,NA,NA
0.3932862854843794,NA,NA
0.3656420592037102,NA,NA
-0.34798368262635104,NA,NA
-0.0697922733128206,NA,NA
0.10132209979676121,NA,NA
-0.014221743820649472,NA,NA
-0.19118315116109066,NA,NA
0.0684547362076411,NA,NA
-0.15704621808397493,NA,NA
-0.25367353456879793,NA,NA
-0.06135428515613829,NA,NA
-0.042316170256471254,NA,NA
0.15835248629206983,NA,NA
0.41183481080778994,NA,NA
-0.3892970648705226,NA,NA
-0.4013521259990116,NA,NA
0.07148877594545895,NA,NA
0.0888427615740455,NA,NA
0.1769952686860971,NA,NA
-0.25960979425317643,NA,NA
0.09631605709479818,NA,NA
0.29467922974323685,NA,NA
-0.05149455709863807,NA,NA
-0.39555802175656113,NA,NA
-0.18098116278587875,NA,NA
-0.07529418922471928,NA,NA
-0.5000565131140179,NA,NA
-0.12775052107837997,NA,NA
-0.04794784729187467,NA,NA
-0.37338740795509806,NA,NA
-0.00504505149528414,NA,NA
0.2446671883838541,NA,NA
-0.12391853268934896,NA,NA
0.18008039441356988,NA,NA
-0.16970011904993038,NA,NA
0.25953615890627346,NA,NA
-0.2040046280819981,NA,NA
-0.15101255610998426,NA,NA
-0.5894813194784867,NA,NA
0.2571611389595981,NA,NA
-0.5202884981879753,NA,NA
0.13299190308779502,NA,NA
-0.04190816335828926,NA,NA
0.1421818213943091,NA,NA
-0.22853420864889565,NA,NA
0.5245799383922543,NA,NA
-0.4620687678622783,NA,NA
-0.11694329847377966,NA,NA
-0.25987220263943117,NA,NA
0.27664258311872386,NA,NA
0.06924290847667192,NA,NA
-0.3284915350452727,NA,NA
-0.03265533656448329,NA,NA
0.12174418501856124,NA,NA
-0.0884402340391405,NA,NA
-0.9369328277345422,NA,NA
0.19157985120024065,NA,NA
0.04583356076398117,NA,NA
-0.4702294231129998,NA,NA
-0.05313798104032674,NA,NA
-0.22423019501249863,NA,NA
-0.005288857537736928,NA,NA
0.10431266850607264,NA,NA
-0.0684933460478353,NA,NA
NA,1.5566676161074164,NA
NA,0.17829550294818416,NA
NA,0.8368092128949863,NA
NA,-1.122656079851634,NA
NA,-0.5537036590635077,NA
NA,2.3791741793829746,NA
NA,1.3318904622600176,NA
NA,-0.17301294586366864,NA
NA,1.4781717977168525,NA
NA,3.2849815510360707,NA
NA,2.2057749288253716,NA
NA,-0.05773120546291711,NA
NA,0.16767336958716791,NA
NA,-4.0993409821986155,NA
NA,-0.5562169536594684,NA
NA,0.06680933450430583,NA
NA,-2.174727448335529,NA
NA,-0.07818365574366697,NA
NA,1.6573798387909955,NA
NA,-1.2355638282102124,NA
NA,-1.3067276983848972,NA
NA,1.6445885685152248,NA
NA,-2.4048288285980246,NA
NA,0.9486952076028539,NA
NA,1.1905188876738033,NA
NA,-0.2971985616075914,NA
NA,-1.1577857678684451,NA
NA,-0.0633469652707163,NA
NA,-3.1852055104813686,NA
NA,0.026957451157466807,NA
NA,3.3421600276769614,NA
NA,1.5479566776789009,NA
NA,-0.969285167036797,NA
NA,1.7171015863038663,NA
NA,0.20373624231879683,NA
NA,0.8463051854571395,NA
NA,-0.4441810401842486,NA
NA,0.8787578805412315,NA
NA,3.6224870887740215,NA
NA,0.038525192048823625,NA
NA,0.29278659498641,NA
NA,-3.5129892645457237,NA
NA,0.2944820205171402,NA
NA,-3.094241344837419,NA
NA,2.875272611119411,NA
NA,-1.5765670300925332,NA
NA,2.660797908207462,NA
NA,2.4894720507432377,NA
NA,2.628450169322323,NA
NA,1.0000838957492575,NA
NA,0.15063013586811613,NA
NA,1.8681290781132756,NA
NA,1.3486753782168728,NA
NA,3.6582846516758734,NA
NA,5.63447898373809,NA
NA,-3.0682953100221053,NA
NA,2.3689597477476987,NA
NA,-3.395047324390117,NA
NA,-0.9973533758908041,NA
NA,2.8605354991942082,NA
NA,3.4534780778470724,NA
NA,-4.547129768341649,NA
NA,3.9945889828231627,NA
NA,2.208782489337232,NA
NA,-0.5360009496395182,NA
NA,1.345435539381876,NA
NA,-2.4591825236998823,NA
NA,1.1379549480832116,NA
NA,0.7329899076288741,NA
NA,2.5096656593115583,NA
NA,-0.39136830886840807,NA
NA,-1.1106604201536774,NA
NA,-0.12314265040785358,NA
NA,-0.38572957917166567,NA
NA,-4.3124309878415445,NA
NA,-3.3321343605534546,NA
NA,2.4692882225252903,NA
NA,1.8125872270387238,NA
NA,0.9700374628592425,NA
NA,0.9736358805485554,NA
NA,1.536391102287078,NA
NA,0.7790947467561786,NA
NA,-2.4812127225576215,NA
NA,4.796040716425337,NA
NA,-1.5393332955529533,NA
NA,-3.0695580332416768,NA
NA,-0.543127321154684,NA
NA,0.5437062535267088,NA
NA,0.24753162265633613,NA
NA,0.42913780958043124,NA
NA,1.8522295339735164,NA
NA,-1.8686285421874669,NA
NA,1.175350652696163,NA
NA,-2.5588016611470144,NA
NA,3.6823977078037915,NA
NA,-1.1237926538187437,NA
NA,-1.3169355983188233,NA
NA,-2.2499357400517246,NA
NA,0.5749703577631745,NA
NA,-0.9157766261031868,NA
NA,0.7459676537459562,NA
NA,-0.4836320394746914,NA
NA,0.5613042799262002,NA
NA,2.3019325611758763,NA
NA,-0.3074076574898798,NA
NA,0.4293910454788493,NA
NA,3.7241666007007534,NA
NA,-1.5753940578684302,NA
NA,-3.533736353642074,NA
NA,-4.453875683361443,NA
NA,-2.2342006205377865,NA
NA,-2.2755543390990036,NA
NA,0.31037530520538936,NA
NA,-0.5941218693762991,NA
NA,4.033174637807154,NA
NA,-0.19407429397835743,NA
NA,-0.3197306648740347,NA
NA,2.611359018508109,NA
NA,-2.1529865530025756,NA
NA,1.1749700209833247,NA
NA,-2.7179617582151163,NA
NA,1.0719983344478177,NA
NA,-2.1937933680917037,NA
NA,-0.36376838379763854,NA
NA,2.8125647079915392,NA
NA,-1.4438586380419127,NA
NA,-2.4032532127112933,NA
NA,4.0046861820109205,NA
NA,-2.4862660658996885,NA
NA,-0.7235539035777739,NA
NA,3.749347012598824,NA
NA,0.6434221614022868,NA
NA,5.740558588436245,NA
NA,-0.8384109920820325,NA
NA,-2.109119034396872,NA
NA,-0.25878003237559216,NA
NA,0.11214332817271468,NA
NA,3.524626382743229,NA
NA,-2.4730322883090614,NA
NA,-1.181450193039102,NA
NA,2.7211769520142353,NA
NA,-0.1157308780465202,NA
NA,1.2358376764425667,NA
NA,0.7275641613042247,NA
NA,0.5483353266072493,NA
NA,1.3630952557220737,NA
NA,-2.2694685360242643,NA
NA,-1.1753465264593084,NA
NA,2.0130747804587066,NA
NA,1.5441840476079742,NA
NA,5.89381390598255,NA
NA,1.1911988208928916,NA
NA,0.03398720290171384,NA
NA,2.472916391354741,NA
NA,-1.2365005473280548,NA
NA,1.8812851219797302,NA
NA,1.6111331967046643,NA
NA,1.145959748271477,NA
NA,-2.1961887403241804,NA
NA,0.8501692298159619,NA
NA,0.011911860655036908,NA
NA,-1.6089730843885988,NA
NA,-0.41834469817453684,NA
NA,-2.055477476104127,NA
NA,0.8316064163083527,NA
NA,-5.167178786458819,NA
NA,3.215329662939511,NA
NA,2.128827094763714,NA
NA,-4.707503460009002,NA
NA,-1.5755516266192773,NA
NA,2.0615552347787456,NA
NA,0.5671034486031067,NA
NA,-3.825393038296881,NA
NA,0.6794312368502575,NA
NA,-0.10173519885031702,NA
NA,1.5508123713665876,NA
NA,4.245437890565105,NA
NA,-3.1918041269489423,NA
NA,-0.56838735740015,NA
NA,3.322043902453576,NA
NA,-1.2569536922904139,NA
NA,-1.5101753996088487,NA
NA,-1.5725190531995896,NA
NA,-1.0017815303468387,NA
NA,1.8503625707159126,NA
NA,-4.194782636373781,NA
NA,0.8384775903185802,NA
NA,1.140941960505344,NA
NA,1.2829559240500006,NA
NA,-3.420447268612127,NA
NA,-1.9039456526352967,NA
NA,2.4126648914626037,NA
NA,-0.856523477789173,NA
NA,-3.027714436919247,NA
NA,0.5841075808011797,NA
NA,-0.8813001743857483,NA
NA,-2.3173433868842483,NA
NA,3.9309550615383664,NA
NA,3.1923966561742865,NA
NA,0.05494474727374206,NA
NA,1.456088667686584,NA
NA,0.5970622879337647,NA
NA,-1.7064415339414352,NA
NA,1.7796187475114669,NA
NA,0.19650267619160003,NA
NA,0.013862253607284259,NA
NA,-0.1109462461530558,NA
NA,0.4050118679628642,NA
NA,2.3193452280798637,NA
NA,-0.131959713336084,NA
NA,0.3078141163006797,NA
NA,-1.0910979995216845,NA
NA,2.267643054979067,NA
NA,-0.657585467246008,NA
NA,0.37927004070353365,NA
NA,4.374260526376582,NA
NA,0.9569785951144564,NA
NA,0.6105678165053353,NA
NA,1.4709900520829868,NA
NA,1.430539093850029,NA
NA,-2.717022791075784,NA
NA,1.3878103505512296,NA
NA,3.4925709939191507,NA
NA,-0.7945669485469614,NA
NA,1.7597935930406674,NA
NA,1.2191947798763665,NA
NA,-2.0694073395297794,NA
NA,1.2419951933619502,NA
NA,-0.49225842082049415,NA
NA,1.7086518904764048,NA
NA,-4.85434422011077,NA
NA,2.616135737812594,NA
NA,1.6843365358739695,NA
NA,3.5805202337583077,NA
NA,0.33127757124068685,NA
NA,-3.6001951209668155,NA
NA,-3.775311717104617,NA
NA,1.4099487441147962,NA
NA,0.3352585911614831,NA
NA,-0.045038081282690164,NA
NA,2.9886111995054665,NA
NA,0.8577622359175594,NA
NA,-0.038268090800868015,NA
NA,1.921584054904457,NA
NA,0.5848750247365383,NA
NA,-1.511565405481918,NA
NA,0.09253446432308646,NA
NA,1.7257616578651056,NA
NA,0.7390690547711426,NA
NA,-4.138589428148763,NA
NA,3.8031608553107827,NA
NA,0.9327326730758879,NA
NA,-3.829396957542996,NA
NA,-3.9654317251074547,NA
NA,-1.9883618740742406,NA
NA,-3.910010368402214,NA
NA,-3.454508965068677,NA
NA,0.3150583385757278,NA
NA,3.2385429313907053,NA
NA,0.13349544852480605,NA
NA,-4.128789729458124,NA
NA,3.8584408824266103,NA
NA,-0.7493803199265752,NA
NA,-0.6863284357429503,NA
NA,-3.28845013200493,NA
NA,-0.6097545930358227,NA
NA,1.6487995437218177,NA
NA,0.0424314814916623,NA
NA,-0.5664788158185087,NA
NA,-3.775770346851194,NA
NA,-0.12991189700669167,NA
NA,-0.7613541044577828,NA
NA,-3.627141838598081,NA
NA,-0.7432584900434519,NA
NA,-0.9969590026870949,NA
NA,1.223035751498651,NA
NA,-1.628749750184842,NA
NA,3.896340234735191,NA
NA,-0.7970752842083201,NA
NA,0.39261403196104594,NA
NA,-0.7308341514202488,NA
NA,-4.409948310747511,NA
NA,-0.178944987868657,NA
NA,2.128396754554363,NA
NA,-0.9218320892567385,NA
NA,-0.04250705471622112,NA
NA,2.4648747399233524,NA
NA,0.9405449125477834,NA
NA,-2.1330746572435655,NA
NA,1.3079082975849081,NA
NA,0.45644219667031544,NA
NA,-2.247263902946092,NA
NA,2.1627737630535,NA
NA,-1.2737693523193048,NA
NA,-1.5351433592232135,NA
NA,-1.7850332742063588,NA
NA,-1.9104471091996074,NA
NA,-0.07657986029848449,NA
NA,2.012383144692603,NA
NA,1.5313444935468732,NA
NA,NA,0.01658594588393013
NA,NA,0.13118990097715305
NA,NA,2.208332301039349
NA,NA,0.21407852542988906
